…
    ## Conflicts with tidy packages ----------------------------------------------

    ## filter(): dplyr, stats
    ## lag():    dplyr, stats

    #Table of weather for nycflights dataset
    nycflights13::weather

    ## # A tibble: 26,130 × 15
    ##    origin  year month   day  hour  temp  dewp humid wind_dir wind_speed
    ##     <chr> <dbl> <dbl> <int> <int> <dbl> <dbl> <dbl>    <dbl>      <dbl>
    ## 1     EWR  2013     1     1     0 37.04 21.92 53.97      230   10.35702
    ## 2     EWR  2013     1     1     1 37.04 21.92 53.97      230   13.80936
    ## 3     EWR  2013     1     1     2 37.94 21.92 52.09      230   12.65858
    ## 4     EWR  2013     1     1     3 37.94 23.00 54.51      230   13.80936
    ## 5     EWR  2013     1     1     4 37.94 24.08 57.04      240   14.96014
    ## 6     EWR  2013     1     1     6 39.02 26.06 59.37      270   10.35702
    ## 7     EWR  2013     1     1     7 39.02 26.96 61.63      250    8.05546
    ## 8     EWR  2013     1     1     8 39.02 28.04 64.43      240   11.50780
    ## 9     EWR  2013     1     1     9 39.92 28.04 62.21      250   12.65858
    ## 10    EWR  2013     1     1    10 39.02 28.04 64.43      260   12.65858
    ## # ... with 26,120 more rows, and 5 more variables: wind_gust <dbl>,
    ## #   precip <dbl>, pressure <dbl>, visib <dbl>, time_hour <dttm>
…
    #Filters wind speed for every number under 250 to get rid of outlier
    nycflights13::weather %>%
      filter(wind_speed <250)

    ## # A tibble: 26,126 × 15
    ##    origin  year month   day  hour  temp  dewp humid wind_dir wind_speed
    ##     <chr> <dbl> <dbl> <int> <int> <dbl> <dbl> <dbl>    <dbl>      <dbl>
    ## 1     EWR  2013     1     1     0 37.04 21.92 53.97      230   10.35702
    ## 2     EWR  2013     1     1     1 37.04 21.92 53.97      230   13.80936
    ## 3     EWR  2013     1     1     2 37.94 21.92 52.09      230   12.65858
    ## 4     EWR  2013     1     1     3 37.94 23.00 54.51      230   13.80936
    ## 5     EWR  2013     1     1     4 37.94 24.08 57.04      240   14.96014
    ## 6     EWR  2013     1     1     6 39.02 26.06 59.37      270   10.35702
    ## 7     EWR  2013     1     1     7 39.02 26.96 61.63      250    8.05546
    ## 8     EWR  2013     1     1     8 39.02 28.04 64.43      240   11.50780
    ## 9     EWR  2013     1     1     9 39.92 28.04 62.21      250   12.65858
    ## 10    EWR  2013     1     1    10 39.02 28.04 64.43      260   12.65858
    ## # ... with 26,116 more rows, and 5 more variables: wind_gust <dbl>,
    ## #   precip <dbl>, pressure <dbl>, visib <dbl>, time_hour <dttm>

    #Add the median of speed variable to table
    nycflights13::airports

    ## # A tibble: 1,458 × 8
    ##      faa                           name      lat        lon   alt    tz
    ##    <chr>                          <chr>    <dbl>      <dbl> <int> <dbl>
    ## 1    04G              Lansdowne Airport 41.13047  -80.61958  1044    -5
    ## 2    06A  Moton Field Municipal Airport 32.46057  -85.68003   264    -6
    ## 3    06C            Schaumburg Regional 41.98934  -88.10124   801    -6
    ## 4    06N                Randall Airport 41.43191  -74.39156   523    -5
    ## 5    09J          Jekyll Island Airport 31.07447  -81.42778    11    -5
    ## 6    0A9 Elizabethton Municipal Airport 36.37122  -82.17342  1593    -5
    ## 7    0G6        Williams County Airport 41.46731  -84.50678   730    -5
    ## 8    0G7  Finger Lakes Regional Airport 42.88356  -76.78123   492    -5
    ## 9    0P2   Shoestring Aviation Airfield 39.79482  -76.64719  1000    -5
    ## 10   0S9          Jefferson County Intl 48.05381 -122.81064   108    -8
    ## # ... with 1,448 more rows, and 2 more variables: dst <chr>, tzone <chr>
…
My own task:
============

My task is to use fueleconomy dataset and from this isolate the top 100
compact and midsize cars and make a table comparing the year, class, and
model in order of most recent year

    fueleconomy <- fueleconomy::vehicles %>%
      arrange(desc(year)) %>%
      select(class, model, year) %>%
      filter(class == "Compact Cars" | class == "Midsize Cars") %>%
      slice(1:100) %>%
      print()

    ## # A tibble: 100 × 3
    ##           class                  model  year
    ##           <chr>                  <chr> <int>
    ## 1  Midsize Cars                     A8  2015
    ## 2  Midsize Cars                     A8  2015
    ## 3  Midsize Cars                     S8  2015
    ## 4  Compact Cars        428i Gran Coupe  2015
    ## 5  Compact Cars        435i Gran Coupe  2015
    ## 6  Midsize Cars                   528i  2015
    ## 7  Compact Cars        640i Gran Coupe  2015
    ## 8  Compact Cars 640i xDrive Gran Coupe  2015
    ## 9  Compact Cars        650i Gran Coupe  2015
    ## 10 Compact Cars 650i xDrive Gran Coupe  2015
    ## # ... with 90 more rows
